ISO-10303-21;
HEADER;
FILE_DESCRIPTION (( 'STEP AP214' ),
    '1' );
FILE_NAME ('eslabon1.STEP',
    '2018-11-06T05:50:38',
    ( '' ),
    ( '' ),
    'SwSTEP 2.0',
    'SolidWorks 2018',
    '' );
FILE_SCHEMA (( 'AUTOMOTIVE_DESIGN' ));
ENDSEC;

DATA;
#1 = CIRCLE ( 'NONE', #12, 6.349999999999999645 ) ;
#2 = PRODUCT_DEFINITION_CONTEXT ( 'detailed design', #357, 'design' ) ;
#3 = APPLICATION_PROTOCOL_DEFINITION ( 'draft international standard', 'automotive_design', 1998, #357 ) ;
#4 = EDGE_LOOP ( 'NONE', ( #553, #71, #412, #465 ) ) ;
#5 = ORIENTED_EDGE ( 'NONE', *, *, #514, .F. ) ;
#6 = EDGE_CURVE ( 'NONE', #426, #137, #76, .T. ) ;
#7 = LINE ( 'NONE', #669, #694 ) ;
#8 = DIRECTION ( 'NONE',  ( -1.000000000000000000, 0.0000000000000000000, 0.0000000000000000000 ) ) ;
#9 = EDGE_LOOP ( 'NONE', ( #520, #287, #395, #634 ) ) ;
#10 = UNCERTAINTY_MEASURE_WITH_UNIT (LENGTH_MEASURE( 1.000000000000000082E-05 ), #682, 'distance_accuracy_value', 'NONE');
#11 = PRESENTATION_STYLE_ASSIGNMENT (( #668 ) ) ;
#12 = AXIS2_PLACEMENT_3D ( 'NONE', #227, #218, #560 ) ;
#13 = LINE ( 'NONE', #18, #142 ) ;
#14 = ADVANCED_FACE ( 'NONE', ( #132 ), #145, .F. ) ;
#15 = FACE_OUTER_BOUND ( 'NONE', #470, .T. ) ;
#16 = VERTEX_POINT ( 'NONE', #148 ) ;
#17 = ORIENTED_EDGE ( 'NONE', *, *, #53, .F. ) ;
#18 = CARTESIAN_POINT ( 'NONE',  ( 4.049027706217668943, 4.891612682365773956, 3.000000000000000000 ) ) ;
#19 = CIRCLE ( 'NONE', #493, 3.375000000000000000 ) ;
#20 = CIRCLE ( 'NONE', #621, 50.00000000000000711 ) ;
#21 = VERTEX_POINT ( 'NONE', #211 ) ;
#22 = CARTESIAN_POINT ( 'NONE',  ( 3.375000000000000000, 4.133182947122317167E-16, 3.000000000000000000 ) ) ;
#23 = DIRECTION ( 'NONE',  ( -0.0000000000000000000, -0.0000000000000000000, -1.000000000000000000 ) ) ;
#24 = AXIS2_PLACEMENT_3D ( 'NONE', #359, #115, #183 ) ;
#25 = EDGE_CURVE ( 'NONE', #125, #645, #32, .T. ) ;
#26 = DIRECTION ( 'NONE',  ( -0.0000000000000000000, -0.0000000000000000000, 1.000000000000000000 ) ) ;
#27 = ORIENTED_EDGE ( 'NONE', *, *, #610, .F. ) ;
#28 = CARTESIAN_POINT ( 'NONE',  ( 0.0000000000000000000, 0.0000000000000000000, -42.39999999999999858 ) ) ;
#29 = VECTOR ( 'NONE', #722, 1000.000000000000000 ) ;
#30 = DIRECTION ( 'NONE',  ( 0.1736481776669235866, 0.9848077530122093526, -0.0000000000000000000 ) ) ;
#31 = DIRECTION ( 'NONE',  ( -0.9848077530122092416, -0.1736481776669235866, 0.0000000000000000000 ) ) ;
#32 = LINE ( 'NONE', #542, #187 ) ;
#33 = ORIENTED_EDGE ( 'NONE', *, *, #390, .F. ) ;
#34 = ORIENTED_EDGE ( 'NONE', *, *, #238, .T. ) ;
#35 = CARTESIAN_POINT ( 'NONE',  ( 80.00000000000000000, 19.99999999999999645, -42.39999999999999858 ) ) ;
#36 = CARTESIAN_POINT ( 'NONE',  ( 0.0000000000000000000, 0.0000000000000000000, 9.000000000000000000 ) ) ;
#37 = DIRECTION ( 'NONE',  ( -0.0000000000000000000, -0.0000000000000000000, 1.000000000000000000 ) ) ;
#38 =( NAMED_UNIT ( * ) PLANE_ANGLE_UNIT ( ) SI_UNIT ( $, .RADIAN. ) );
#39 = DIRECTION ( 'NONE',  ( 1.000000000000000000, 0.0000000000000000000, -0.0000000000000000000 ) ) ;
#40 = VECTOR ( 'NONE', #175, 1000.000000000000000 ) ;
#41 = VECTOR ( 'NONE', #597, 1000.000000000000000 ) ;
#42 = MECHANICAL_DESIGN_GEOMETRIC_PRESENTATION_REPRESENTATION (  '', ( #559 ), #80 ) ;
#43 = CARTESIAN_POINT ( 'NONE',  ( 4.049027706217668943, 4.891612682365773956, 3.000000000000000000 ) ) ;
#44 = ORIENTED_EDGE ( 'NONE', *, *, #60, .T. ) ;
#45 = DIRECTION ( 'NONE',  ( -1.000000000000000000, 0.0000000000000000000, 0.0000000000000000000 ) ) ;
#46 = FILL_AREA_STYLE ('',( #290 ) ) ;
#47 = DIRECTION ( 'NONE',  ( -0.0000000000000000000, -0.0000000000000000000, -1.000000000000000000 ) ) ;
#48 =( NAMED_UNIT ( * ) PLANE_ANGLE_UNIT ( ) SI_UNIT ( $, .RADIAN. ) );
#49 = DIRECTION ( 'NONE',  ( 4.336808689942017120E-17, 1.000000000000000000, 0.0000000000000000000 ) ) ;
#50 = VECTOR ( 'NONE', #268, 999.9999999999998863 ) ;
#51 = FACE_OUTER_BOUND ( 'NONE', #663, .T. ) ;
#52 = ORIENTED_EDGE ( 'NONE', *, *, #485, .F. ) ;
#53 = EDGE_CURVE ( 'NONE', #688, #715, #529, .T. ) ;
#54 = DIRECTION ( 'NONE',  ( 0.0000000000000000000, 0.0000000000000000000, 1.000000000000000000 ) ) ;
#55 = EDGE_LOOP ( 'NONE', ( #710, #219, #717, #330, #589, #239, #631, #196, #425 ) ) ;
#56 = CARTESIAN_POINT ( 'NONE',  ( 0.0000000000000000000, 0.0000000000000000000, 9.000000000000000000 ) ) ;
#57 = DIRECTION ( 'NONE',  ( 0.0000000000000000000, 0.0000000000000000000, -1.000000000000000000 ) ) ;
#58 = ORIENTED_EDGE ( 'NONE', *, *, #675, .F. ) ;
#59 = DIRECTION ( 'NONE',  ( -0.0000000000000000000, -0.0000000000000000000, 1.000000000000000000 ) ) ;
#60 = EDGE_CURVE ( 'NONE', #125, #116, #606, .T. ) ;
#61 = CYLINDRICAL_SURFACE ( 'NONE', #24, 50.00000000000000711 ) ;
#62 = PLANE ( 'NONE',  #543 ) ;
#63 = CYLINDRICAL_SURFACE ( 'NONE', #483, 50.00000000000000711 ) ;
#64 = ORIENTED_EDGE ( 'NONE', *, *, #647, .T. ) ;
#65 = DIRECTION ( 'NONE',  ( -1.000000000000000000, 0.0000000000000000000, 0.0000000000000000000 ) ) ;
#66 = AXIS2_PLACEMENT_3D ( 'NONE', #28, #499, #326 ) ;
#67 = EDGE_CURVE ( 'NONE', #177, #314, #724, .T. ) ;
#68 = FACE_BOUND ( 'NONE', #146, .T. ) ;
#69 = EDGE_LOOP ( 'NONE', ( #190, #509 ) ) ;
#70 = PRESENTATION_LAYER_ASSIGNMENT (  '', '', ( #309 ) ) ;
#71 = ORIENTED_EDGE ( 'NONE', *, *, #472, .F. ) ;
#72 = ADVANCED_FACE ( 'NONE', ( #255 ), #609, .T. ) ;
#73 = ORIENTED_EDGE ( 'NONE', *, *, #267, .T. ) ;
#74 = ADVANCED_FACE ( 'NONE', ( #15 ), #386, .F. ) ;
#75 = UNCERTAINTY_MEASURE_WITH_UNIT (LENGTH_MEASURE( 1.000000000000000082E-05 ), #678, 'distance_accuracy_value', 'NONE');
#76 = LINE ( 'NONE', #534, #306 ) ;
#77 = ADVANCED_FACE ( 'NONE', ( #617 ), #272, .T. ) ;
#78 = ORIENTED_EDGE ( 'NONE', *, *, #414, .F. ) ;
#79 = DIRECTION ( 'NONE',  ( 1.000000000000000000, 1.387778780781445676E-16, -0.0000000000000000000 ) ) ;
#80 =( GEOMETRIC_REPRESENTATION_CONTEXT ( 3 ) GLOBAL_UNCERTAINTY_ASSIGNED_CONTEXT ( ( #644 ) ) GLOBAL_UNIT_ASSIGNED_CONTEXT ( ( #335, #38, #215 ) ) REPRESENTATION_CONTEXT ( 'NONE', 'WORKASPACE' ) );
#81 = DIRECTION ( 'NONE',  ( 0.0000000000000000000, 0.0000000000000000000, -1.000000000000000000 ) ) ;
#82 = DIRECTION ( 'NONE',  ( -0.0000000000000000000, -0.0000000000000000000, -1.000000000000000000 ) ) ;
#83 = LINE ( 'NONE', #91, #340 ) ;
#84 = ORIENTED_EDGE ( 'NONE', *, *, #414, .T. ) ;
#85 = DIRECTION ( 'NONE',  ( -1.000000000000000000, 0.0000000000000000000, 0.0000000000000000000 ) ) ;
#86 = DIRECTION ( 'NONE',  ( -1.000000000000000000, 0.0000000000000000000, 0.0000000000000000000 ) ) ;
#87 = ORIENTED_EDGE ( 'NONE', *, *, #561, .F. ) ;
#88 = DIRECTION ( 'NONE',  ( -0.0000000000000000000, -0.0000000000000000000, -1.000000000000000000 ) ) ;
#89 = DIRECTION ( 'NONE',  ( -0.0000000000000000000, -0.0000000000000000000, 1.000000000000000000 ) ) ;
#90 = CARTESIAN_POINT ( 'NONE',  ( 0.0000000000000000000, 0.0000000000000000000, 0.0000000000000000000 ) ) ;
#91 = CARTESIAN_POINT ( 'NONE',  ( 3.375000000000000000, 4.133182947122317167E-16, 9.000000000000000000 ) ) ;
#92 = FACE_OUTER_BOUND ( 'NONE', #252, .T. ) ;
#93 = AXIS2_PLACEMENT_3D ( 'NONE', #625, #103, #233 ) ;
#94 = PLANE ( 'NONE',  #549 ) ;
#95 = CARTESIAN_POINT ( 'NONE',  ( 1.224646799147353454E-15, 20.00000000000000355, 9.000000000000000000 ) ) ;
#96 = VECTOR ( 'NONE', #49, 1000.000000000000000 ) ;
#97 = EDGE_LOOP ( 'NONE', ( #17, #389, #620, #566 ) ) ;
#98 = EDGE_CURVE ( 'NONE', #600, #293, #237, .T. ) ;
#99 = ORIENTED_EDGE ( 'NONE', *, *, #185, .F. ) ;
#100 = CARTESIAN_POINT ( 'NONE',  ( 80.00000000000001421, -80.00000000000000000, 9.000000000000000000 ) ) ;
#101 = DIRECTION ( 'NONE',  ( -1.000000000000000000, 0.0000000000000000000, 0.0000000000000000000 ) ) ;
#102 = SURFACE_SIDE_STYLE ('',( #329 ) ) ;
#103 = DIRECTION ( 'NONE',  ( 0.0000000000000000000, 0.0000000000000000000, -1.000000000000000000 ) ) ;
#104 = EDGE_LOOP ( 'NONE', ( #87, #184, #336, #44, #524, #443 ) ) ;
#105 = LINE ( 'NONE', #618, #294 ) ;
#106 = FACE_OUTER_BOUND ( 'NONE', #97, .T. ) ;
#107 = AXIS2_PLACEMENT_3D ( 'NONE', #662, #89, #86 ) ;
#108 = CARTESIAN_POINT ( 'NONE',  ( 50.00000000000000711, 0.0000000000000000000, -42.39999999999999858 ) ) ;
#109 = CARTESIAN_POINT ( 'NONE',  ( 16.99016767081733192, -2.609740545482356122, 3.000000000000000000 ) ) ;
#110 = ORIENTED_EDGE ( 'NONE', *, *, #98, .T. ) ;
#111 = EDGE_CURVE ( 'NONE', #322, #486, #83, .T. ) ;
#112 = CARTESIAN_POINT ( 'NONE',  ( 16.53000000000000114, 0.0000000000000000000, 0.0000000000000000000 ) ) ;
#113 = DIRECTION ( 'NONE',  ( 1.000000000000000000, -8.673617379884035472E-17, 0.0000000000000000000 ) ) ;
#114 = PRODUCT_DEFINITION ( 'UNKNOWN', '', #301, #2 ) ;
#115 = DIRECTION ( 'NONE',  ( -0.0000000000000000000, -0.0000000000000000000, 1.000000000000000000 ) ) ;
#116 = VERTEX_POINT ( 'NONE', #279 ) ;
#117 = CIRCLE ( 'NONE', #182, 2.649999999999999467 ) ;
#118 = CARTESIAN_POINT ( 'NONE',  ( 0.0000000000000000000, 0.0000000000000000000, 3.000000000000000000 ) ) ;
#119 = CIRCLE ( 'NONE', #568, 2.649999999999999467 ) ;
#120 = ORIENTED_EDGE ( 'NONE', *, *, #528, .T. ) ;
#121 = CARTESIAN_POINT ( 'NONE',  ( 80.00000000000001421, -80.00000000000000000, -42.39999999999999858 ) ) ;
#122 = EDGE_LOOP ( 'NONE', ( #356, #540, #84, #706, #226, #392, #257, #34, #120 ) ) ;
#123 = CARTESIAN_POINT ( 'NONE',  ( -16.99016767081733192, -2.609740545482356122, 3.000000000000000000 ) ) ;
#124 = AXIS2_PLACEMENT_3D ( 'NONE', #384, #26, #436 ) ;
#125 = VERTEX_POINT ( 'NONE', #492 ) ;
#126 = DIRECTION ( 'NONE',  ( 0.0000000000000000000, 0.0000000000000000000, -1.000000000000000000 ) ) ;
#127 = EDGE_CURVE ( 'NONE', #688, #583, #677, .T. ) ;
#128 = CIRCLE ( 'NONE', #259, 6.349999999999996980 ) ;
#129 = FACE_OUTER_BOUND ( 'NONE', #372, .T. ) ;
#130 = ORIENTED_EDGE ( 'NONE', *, *, #338, .T. ) ;
#131 = ADVANCED_FACE ( 'NONE', ( #495, #463 ), #216, .T. ) ;
#132 = FACE_OUTER_BOUND ( 'NONE', #203, .T. ) ;
#133 = LINE ( 'NONE', #712, #721 ) ;
#134 = CIRCLE ( 'NONE', #530, 50.00000000000000711 ) ;
#135 = ADVANCED_FACE ( 'NONE', ( #469 ), #664, .T. ) ;
#136 = ORIENTED_EDGE ( 'NONE', *, *, #225, .T. ) ;
#137 = VERTEX_POINT ( 'NONE', #709 ) ;
#138 = AXIS2_PLACEMENT_3D ( 'NONE', #118, #460, #635 ) ;
#139 = EDGE_CURVE ( 'NONE', #180, #305, #313, .T. ) ;
#140 = DIRECTION ( 'NONE',  ( -0.9848077530122093526, 0.1736481776669235866, 0.0000000000000000000 ) ) ;
#141 = VERTEX_POINT ( 'NONE', #598 ) ;
#142 = VECTOR ( 'NONE', #380, 1000.000000000000000 ) ;
#143 = LINE ( 'NONE', #448, #96 ) ;
#144 = CARTESIAN_POINT ( 'NONE',  ( 80.00000000000001421, -80.00000000000000000, 9.000000000000000000 ) ) ;
#145 = CYLINDRICAL_SURFACE ( 'NONE', #693, 2.649999999999999467 ) ;
#146 = EDGE_LOOP ( 'NONE', ( #608, #671 ) ) ;
#147 = CARTESIAN_POINT ( 'NONE',  ( 80.00000000000000000, 19.99999999999999645, 9.000000000000000000 ) ) ;
#148 = CARTESIAN_POINT ( 'NONE',  ( 80.00000000000001421, -80.00000000000000000, -42.39999999999999858 ) ) ;
#149 = AXIS2_PLACEMENT_3D ( 'NONE', #707, #151, #324 ) ;
#150 = EDGE_CURVE ( 'NONE', #558, #293, #630, .T. ) ;
#151 = DIRECTION ( 'NONE',  ( -0.1736481776669235866, 0.9848077530122093526, 0.0000000000000000000 ) ) ;
#152 = DIRECTION ( 'NONE',  ( 0.0000000000000000000, 0.0000000000000000000, -1.000000000000000000 ) ) ;
#153 = ORIENTED_EDGE ( 'NONE', *, *, #206, .T. ) ;
#154 = DIRECTION ( 'NONE',  ( -0.0000000000000000000, -0.0000000000000000000, -1.000000000000000000 ) ) ;
#155 = CARTESIAN_POINT ( 'NONE',  ( 0.0000000000000000000, 20.00000000000000355, 9.000000000000000000 ) ) ;
#156 = CIRCLE ( 'NONE', #302, 2.649999999999999467 ) ;
#157 = LINE ( 'NONE', #292, #507 ) ;
#158 = ORIENTED_EDGE ( 'NONE', *, *, #139, .T. ) ;
#159 = CARTESIAN_POINT ( 'NONE',  ( 16.99016767081734613, 2.609740545482353458, 0.0000000000000000000 ) ) ;
#160 = ORIENTED_EDGE ( 'NONE', *, *, #286, .T. ) ;
#161 = CARTESIAN_POINT ( 'NONE',  ( -16.99016767081734613, 2.609740545482353458, 0.0000000000000000000 ) ) ;
#162 = DIRECTION ( 'NONE',  ( -0.0000000000000000000, -0.0000000000000000000, -1.000000000000000000 ) ) ;
#163 = CARTESIAN_POINT ( 'NONE',  ( 4.049027706217661837, -4.891612682365775733, -0.0000000000000000000 ) ) ;
#164 = LINE ( 'NONE', #361, #296 ) ;
#165 = CARTESIAN_POINT ( 'NONE',  ( 1.224646799147353454E-15, 20.00000000000000355, 9.000000000000000000 ) ) ;
#166 = CARTESIAN_POINT ( 'NONE',  ( 0.0000000000000000000, 0.0000000000000000000, 3.000000000000000000 ) ) ;
#167 = VECTOR ( 'NONE', #445, 1000.000000000000000 ) ;
#168 = EDGE_CURVE ( 'NONE', #646, #696, #660, .T. ) ;
#169 = ORIENTED_EDGE ( 'NONE', *, *, #365, .F. ) ;
#170 = SURFACE_SIDE_STYLE ('',( #572 ) ) ;
#171 = CARTESIAN_POINT ( 'NONE',  ( -20.00000000000000355, -45.82575694955840362, 0.0000000000000000000 ) ) ;
#172 = DIRECTION ( 'NONE',  ( -0.0000000000000000000, -0.0000000000000000000, -1.000000000000000000 ) ) ;
#173 = ORIENTED_EDGE ( 'NONE', *, *, #323, .T. ) ;
#174 = DIRECTION ( 'NONE',  ( 1.000000000000000000, 0.0000000000000000000, 0.0000000000000000000 ) ) ;
#175 = DIRECTION ( 'NONE',  ( -1.000000000000000000, -1.387778780781445429E-16, 0.0000000000000000000 ) ) ;
#176 = CIRCLE ( 'NONE', #220, 2.649999999999999467 ) ;
#177 = VERTEX_POINT ( 'NONE', #564 ) ;
#178 = PRODUCT_CONTEXT ( 'NONE', #684, 'mechanical' ) ;
#179 = CLOSED_SHELL ( 'NONE', ( #373, #74, #14, #481, #135, #697, #311, #77, #538, #258, #317, #588, #368, #364, #193, #533, #418, #475, #131, #584, #264, #72 ) ) ;
#180 = VERTEX_POINT ( 'NONE', #391 ) ;
#181 = CARTESIAN_POINT ( 'NONE',  ( 3.375000000000000000, 4.133182947122317167E-16, 9.000000000000000000 ) ) ;
#182 = AXIS2_PLACEMENT_3D ( 'NONE', #112, #523, #622 ) ;
#183 = DIRECTION ( 'NONE',  ( 1.000000000000000000, 0.0000000000000000000, 0.0000000000000000000 ) ) ;
#184 = ORIENTED_EDGE ( 'NONE', *, *, #267, .F. ) ;
#185 = EDGE_CURVE ( 'NONE', #696, #715, #20, .T. ) ;
#186 = LINE ( 'NONE', #641, #518 ) ;
#187 = VECTOR ( 'NONE', #704, 1000.000000000000000 ) ;
#188 = ORIENTED_EDGE ( 'NONE', *, *, #657, .F. ) ;
#189 = AXIS2_PLACEMENT_3D ( 'NONE', #144, #208, #546 ) ;
#190 = ORIENTED_EDGE ( 'NONE', *, *, #205, .F. ) ;
#191 = EDGE_CURVE ( 'NONE', #548, #314, #352, .T. ) ;
#192 = FACE_OUTER_BOUND ( 'NONE', #274, .T. ) ;
#193 = ADVANCED_FACE ( 'NONE', ( #377 ), #370, .F. ) ;
#194 = LINE ( 'NONE', #578, #200 ) ;
#195 = AXIS2_PLACEMENT_3D ( 'NONE', #455, #240, #174 ) ;
#196 = ORIENTED_EDGE ( 'NONE', *, *, #150, .F. ) ;
#197 = ORIENTED_EDGE ( 'NONE', *, *, #127, .F. ) ;
#198 = ORIENTED_EDGE ( 'NONE', *, *, #347, .T. ) ;
#199 = DIRECTION ( 'NONE',  ( -0.0000000000000000000, -0.0000000000000000000, -1.000000000000000000 ) ) ;
#200 = VECTOR ( 'NONE', #366, 1000.000000000000114 ) ;
#201 = LINE ( 'NONE', #121, #40 ) ;
#202 = CIRCLE ( 'NONE', #421, 3.375000000000000000 ) ;
#203 = EDGE_LOOP ( 'NONE', ( #689, #371, #408, #467 ) ) ;
#204 = CARTESIAN_POINT ( 'NONE',  ( 0.0000000000000000000, 20.00000000000000355, 0.0000000000000000000 ) ) ;
#205 = EDGE_CURVE ( 'NONE', #137, #486, #419, .T. ) ;
#206 = EDGE_CURVE ( 'NONE', #645, #16, #670, .T. ) ;
#207 = CARTESIAN_POINT ( 'NONE',  ( -16.99016767081733192, -2.609740545482356122, 0.0000000000000000000 ) ) ;
#208 = DIRECTION ( 'NONE',  ( 1.387778780781445429E-16, -1.000000000000000000, 0.0000000000000000000 ) ) ;
#209 = CARTESIAN_POINT ( 'NONE',  ( 16.53000000000000114, 0.0000000000000000000, 3.000000000000000000 ) ) ;
#210 = VECTOR ( 'NONE', #574, 1000.000000000000000 ) ;
#211 = CARTESIAN_POINT ( 'NONE',  ( -20.00000000000000355, 2.449293598294706907E-15, 0.0000000000000000000 ) ) ;
#212 = LINE ( 'NONE', #231, #525 ) ;
#213 = VERTEX_POINT ( 'NONE', #288 ) ;
#214 = ORIENTED_EDGE ( 'NONE', *, *, #415, .F. ) ;
#215 =( NAMED_UNIT ( * ) SI_UNIT ( $, .STERADIAN. ) SOLID_ANGLE_UNIT ( ) );
#216 = PLANE ( 'NONE',  #217 ) ;
#217 = AXIS2_PLACEMENT_3D ( 'NONE', #331, #152, #502 ) ;
#218 = DIRECTION ( 'NONE',  ( 0.0000000000000000000, 0.0000000000000000000, -1.000000000000000000 ) ) ;
#219 = ORIENTED_EDGE ( 'NONE', *, *, #422, .F. ) ;
#220 = AXIS2_PLACEMENT_3D ( 'NONE', #563, #298, #571 ) ;
#221 = DIRECTION ( 'NONE',  ( -0.1736481776669235588, -0.9848077530122093526, 0.0000000000000000000 ) ) ;
#222 = DIRECTION ( 'NONE',  ( 4.336808689942017120E-17, 1.000000000000000000, 0.0000000000000000000 ) ) ;
#223 = LINE ( 'NONE', #35, #476 ) ;
#224 = VECTOR ( 'NONE', #59, 1000.000000000000000 ) ;
#225 = EDGE_CURVE ( 'NONE', #696, #21, #212, .T. ) ;
#226 = ORIENTED_EDGE ( 'NONE', *, *, #457, .T. ) ;
#227 = CARTESIAN_POINT ( 'NONE',  ( 0.0000000000000000000, 0.0000000000000000000, 3.000000000000000000 ) ) ;
#228 = CARTESIAN_POINT ( 'NONE',  ( 1.224646799147353454E-15, 20.00000000000000355, 0.0000000000000000000 ) ) ;
#229 = EDGE_LOOP ( 'NONE', ( #99, #136, #327, #479, #453 ) ) ;
#230 = DIRECTION ( 'NONE',  ( 0.0000000000000000000, 0.0000000000000000000, -1.000000000000000000 ) ) ;
#231 = CARTESIAN_POINT ( 'NONE',  ( -20.00000000000000355, -80.00000000000001421, 0.0000000000000000000 ) ) ;
#232 = CARTESIAN_POINT ( 'NONE',  ( -20.00000000000000355, 2.449293598294706907E-15, 9.000000000000000000 ) ) ;
#233 = DIRECTION ( 'NONE',  ( -1.000000000000000000, 0.0000000000000000000, 0.0000000000000000000 ) ) ;
#234 = COLOUR_RGB ( '',0.9882352941176471006, 0.7372549019607843590, 0.5176470588235293491 ) ;
#235 =( NAMED_UNIT ( * ) SI_UNIT ( $, .STERADIAN. ) SOLID_ANGLE_UNIT ( ) );
#236 = DIRECTION ( 'NONE',  ( -0.0000000000000000000, -0.0000000000000000000, 1.000000000000000000 ) ) ;
#237 = LINE ( 'NONE', #440, #41 ) ;
#238 = EDGE_CURVE ( 'NONE', #548, #180, #652, .T. ) ;
#239 = ORIENTED_EDGE ( 'NONE', *, *, #67, .F. ) ;
#240 = DIRECTION ( 'NONE',  ( 0.0000000000000000000, 0.0000000000000000000, 1.000000000000000000 ) ) ;
#241 = DIRECTION ( 'NONE',  ( 0.9848077530122092416, 0.1736481776669236143, 0.0000000000000000000 ) ) ;
#242 = EDGE_LOOP ( 'NONE', ( #454, #579, #607, #110 ) ) ;
#243 = EDGE_LOOP ( 'NONE', ( #464, #130, #160, #300, #341, #355 ) ) ;
#244 = DIRECTION ( 'NONE',  ( -1.000000000000000000, 0.0000000000000000000, 0.0000000000000000000 ) ) ;
#245 = DIRECTION ( 'NONE',  ( -1.000000000000000000, 0.0000000000000000000, 0.0000000000000000000 ) ) ;
#246 = LINE ( 'NONE', #526, #224 ) ;
#247 = DIRECTION ( 'NONE',  ( 0.1736481776669236143, -0.9848077530122092416, 0.0000000000000000000 ) ) ;
#248 = VECTOR ( 'NONE', #716, 1000.000000000000114 ) ;
#249 = EDGE_LOOP ( 'NONE', ( #153, #27, #307, #285 ) ) ;
#250 = CARTESIAN_POINT ( 'NONE',  ( -20.00000000000000355, -80.00000000000001421, 9.000000000000000000 ) ) ;
#251 = CARTESIAN_POINT ( 'NONE',  ( -16.53000000000000114, 0.0000000000000000000, 0.0000000000000000000 ) ) ;
#252 = EDGE_LOOP ( 'NONE', ( #64, #214, #58, #73 ) ) ;
#253 = EDGE_CURVE ( 'NONE', #665, #177, #403, .T. ) ;
#254 = FACE_OUTER_BOUND ( 'NONE', #9, .T. ) ;
#255 = FACE_OUTER_BOUND ( 'NONE', #243, .T. ) ;
#256 = ORIENTED_EDGE ( 'NONE', *, *, #111, .T. ) ;
#257 = ORIENTED_EDGE ( 'NONE', *, *, #657, .T. ) ;
#258 = ADVANCED_FACE ( 'NONE', ( #68, #430 ), #506, .T. ) ;
#259 = AXIS2_PLACEMENT_3D ( 'NONE', #685, #299, #354 ) ;
#260 = CARTESIAN_POINT ( 'NONE',  ( 80.00000000000000000, 19.99999999999999645, 9.000000000000000000 ) ) ;
#261 = LINE ( 'NONE', #291, #210 ) ;
#262 = LINE ( 'NONE', #207, #636 ) ;
#263 = MECHANICAL_DESIGN_GEOMETRIC_PRESENTATION_REPRESENTATION (  '', ( #309 ), #325 ) ;
#264 = ADVANCED_FACE ( 'NONE', ( #106 ), #63, .F. ) ;
#265 = ORIENTED_EDGE ( 'NONE', *, *, #98, .F. ) ;
#266 = AXIS2_PLACEMENT_3D ( 'NONE', #570, #57, #295 ) ;
#267 = EDGE_CURVE ( 'NONE', #640, #308, #362, .T. ) ;
#268 = DIRECTION ( 'NONE',  ( -0.9848077530122093526, 0.1736481776669235866, -0.0000000000000000000 ) ) ;
#269 = CARTESIAN_POINT ( 'NONE',  ( -16.99016767081734613, 2.609740545482353458, 3.000000000000000000 ) ) ;
#270 = ORIENTED_EDGE ( 'NONE', *, *, #191, .T. ) ;
#271 = DIRECTION ( 'NONE',  ( 0.9848077530122092416, 0.1736481776669235588, 0.0000000000000000000 ) ) ;
#272 = PLANE ( 'NONE',  #189 ) ;
#273 = ORIENTED_EDGE ( 'NONE', *, *, #286, .F. ) ;
#274 = EDGE_LOOP ( 'NONE', ( #420, #497, #393, #158 ) ) ;
#275 = DIRECTION ( 'NONE',  ( 1.000000000000000000, 0.0000000000000000000, -0.0000000000000000000 ) ) ;
#276 = AXIS2_PLACEMENT_3D ( 'NONE', #56, #456, #348 ) ;
#277 = DIRECTION ( 'NONE',  ( -1.000000000000000000, 0.0000000000000000000, 0.0000000000000000000 ) ) ;
#278 = CARTESIAN_POINT ( 'NONE',  ( -19.99999999999998934, -45.82575694955841072, -42.39999999999999858 ) ) ;
#279 = CARTESIAN_POINT ( 'NONE',  ( 80.00000000000000000, 19.99999999999999645, -42.39999999999999858 ) ) ;
#280 = VERTEX_POINT ( 'NONE', #161 ) ;
#281 = DIRECTION ( 'NONE',  ( -0.9848077530122092416, -0.1736481776669235866, 0.0000000000000000000 ) ) ;
#282 = CARTESIAN_POINT ( 'NONE',  ( -4.049027706217661837, -4.891612682365775733, 0.0000000000000000000 ) ) ;
#283 = DIRECTION ( 'NONE',  ( -0.0000000000000000000, -0.0000000000000000000, -1.000000000000000000 ) ) ;
#284 = PLANE ( 'NONE',  #334 ) ;
#285 = ORIENTED_EDGE ( 'NONE', *, *, #25, .T. ) ;
#286 = EDGE_CURVE ( 'NONE', #213, #646, #7, .T. ) ;
#287 = ORIENTED_EDGE ( 'NONE', *, *, #350, .F. ) ;
#288 = CARTESIAN_POINT ( 'NONE',  ( -20.00000000000000355, -80.00000000000001421, -42.39999999999999858 ) ) ;
#289 = ORIENTED_EDGE ( 'NONE', *, *, #675, .T. ) ;
#290 = FILL_AREA_STYLE_COLOUR ( '', #234 ) ;
#291 = CARTESIAN_POINT ( 'NONE',  ( 80.00000000000001421, -80.00000000000000000, 9.000000000000000000 ) ) ;
#292 = CARTESIAN_POINT ( 'NONE',  ( 0.0000000000000000000, 20.00000000000000355, 9.000000000000000000 ) ) ;
#293 = VERTEX_POINT ( 'NONE', #613 ) ;
#294 = VECTOR ( 'NONE', #281, 1000.000000000000114 ) ;
#295 = DIRECTION ( 'NONE',  ( -1.000000000000000000, 0.0000000000000000000, 0.0000000000000000000 ) ) ;
#296 = VECTOR ( 'NONE', #468, 1000.000000000000000 ) ;
#297 = VERTEX_POINT ( 'NONE', #718 ) ;
#298 = DIRECTION ( 'NONE',  ( 0.0000000000000000000, 0.0000000000000000000, -1.000000000000000000 ) ) ;
#299 = DIRECTION ( 'NONE',  ( 0.0000000000000000000, 0.0000000000000000000, -1.000000000000000000 ) ) ;
#300 = ORIENTED_EDGE ( 'NONE', *, *, #532, .T. ) ;
#301 = PRODUCT_DEFINITION_FORMATION_WITH_SPECIFIED_SOURCE ( 'ANY', '', #731, .NOT_KNOWN. ) ;
#302 = AXIS2_PLACEMENT_3D ( 'NONE', #447, #451, #557 ) ;
#303 = CARTESIAN_POINT ( 'NONE',  ( 16.99016767081733192, -2.609740545482356122, 3.000000000000000000 ) ) ;
#304 = EDGE_CURVE ( 'NONE', #486, #137, #202, .T. ) ;
#305 = VERTEX_POINT ( 'NONE', #282 ) ;
#306 = VECTOR ( 'NONE', #199, 1000.000000000000000 ) ;
#307 = ORIENTED_EDGE ( 'NONE', *, *, #60, .F. ) ;
#308 = VERTEX_POINT ( 'NONE', #228 ) ;
#309 = STYLED_ITEM ( 'NONE', ( #703 ), #611 ) ;
#310 = CYLINDRICAL_SURFACE ( 'NONE', #276, 20.00000000000000355 ) ;
#311 = ADVANCED_FACE ( 'NONE', ( #129 ), #284, .T. ) ;
#312 = FACE_OUTER_BOUND ( 'NONE', #4, .T. ) ;
#313 = LINE ( 'NONE', #601, #508 ) ;
#314 = VERTEX_POINT ( 'NONE', #163 ) ;
#315 = ORIENTED_EDGE ( 'NONE', *, *, #53, .T. ) ;
#316 = EDGE_LOOP ( 'NONE', ( #701, #595, #188, #521 ) ) ;
#317 = ADVANCED_FACE ( 'NONE', ( #51 ), #410, .F. ) ;
#318 = FACE_OUTER_BOUND ( 'NONE', #416, .T. ) ;
#319 = PLANE ( 'NONE',  #429 ) ;
#320 = VECTOR ( 'NONE', #452, 1000.000000000000000 ) ;
#321 = AXIS2_PLACEMENT_3D ( 'NONE', #385, #437, #383 ) ;
#322 = VERTEX_POINT ( 'NONE', #181 ) ;
#323 = EDGE_CURVE ( 'NONE', #577, #691, #143, .T. ) ;
#324 = DIRECTION ( 'NONE',  ( -0.9848077530122093526, -0.1736481776669235866, 0.0000000000000000000 ) ) ;
#325 =( GEOMETRIC_REPRESENTATION_CONTEXT ( 3 ) GLOBAL_UNCERTAINTY_ASSIGNED_CONTEXT ( ( #75 ) ) GLOBAL_UNIT_ASSIGNED_CONTEXT ( ( #678, #48, #353 ) ) REPRESENTATION_CONTEXT ( 'NONE', 'WORKASPACE' ) );
#326 = DIRECTION ( 'NONE',  ( -1.000000000000000000, 0.0000000000000000000, -0.0000000000000000000 ) ) ;
#327 = ORIENTED_EDGE ( 'NONE', *, *, #647, .F. ) ;
#328 = CARTESIAN_POINT ( 'NONE',  ( 16.99016767081734613, 2.609740545482353458, 3.000000000000000000 ) ) ;
#329 = SURFACE_STYLE_FILL_AREA ( #551 ) ;
#330 = ORIENTED_EDGE ( 'NONE', *, *, #431, .F. ) ;
#331 = CARTESIAN_POINT ( 'NONE',  ( -16.53000000000000114, 0.0000000000000000000, 3.000000000000000000 ) ) ;
#332 = VERTEX_POINT ( 'NONE', #683 ) ;
#333 = DIRECTION ( 'NONE',  ( 1.000000000000000000, 0.0000000000000000000, 0.0000000000000000000 ) ) ;
#334 = AXIS2_PLACEMENT_3D ( 'NONE', #250, #358, #405 ) ;
#335 =( LENGTH_UNIT ( ) NAMED_UNIT ( * ) SI_UNIT ( .MILLI., .METRE. ) );
#336 = ORIENTED_EDGE ( 'NONE', *, *, #365, .T. ) ;
#337 = CARTESIAN_POINT ( 'NONE',  ( 0.0000000000000000000, 0.0000000000000000000, 3.000000000000000000 ) ) ;
#338 = EDGE_CURVE ( 'NONE', #16, #213, #201, .T. ) ;
#339 = FACE_BOUND ( 'NONE', #55, .T. ) ;
#340 = VECTOR ( 'NONE', #82, 1000.000000000000000 ) ;
#341 = ORIENTED_EDGE ( 'NONE', *, *, #127, .T. ) ;
#342 = CARTESIAN_POINT ( 'NONE',  ( -4.049027706217668943, 4.891612682365773956, 0.0000000000000000000 ) ) ;
#343 = DIRECTION ( 'NONE',  ( 0.0000000000000000000, 0.0000000000000000000, -1.000000000000000000 ) ) ;
#344 = CARTESIAN_POINT ( 'NONE',  ( 50.00000000000000711, 0.0000000000000000000, 0.0000000000000000000 ) ) ;
#345 = DIRECTION ( 'NONE',  ( 0.0000000000000000000, 0.0000000000000000000, 1.000000000000000000 ) ) ;
#346 = EDGE_LOOP ( 'NONE', ( #197, #315, #503, #33 ) ) ;
#347 = EDGE_CURVE ( 'NONE', #314, #305, #128, .T. ) ;
#348 = DIRECTION ( 'NONE',  ( -1.000000000000000000, 0.0000000000000000000, 0.0000000000000000000 ) ) ;
#349 = DIRECTION ( 'NONE',  ( -0.0000000000000000000, -0.0000000000000000000, 1.000000000000000000 ) ) ;
#350 = EDGE_CURVE ( 'NONE', #426, #322, #544, .T. ) ;
#351 = LINE ( 'NONE', #204, #29 ) ;
#352 = LINE ( 'NONE', #619, #581 ) ;
#353 =( NAMED_UNIT ( * ) SI_UNIT ( $, .STERADIAN. ) SOLID_ANGLE_UNIT ( ) );
#354 = DIRECTION ( 'NONE',  ( -1.000000000000000000, 0.0000000000000000000, 0.0000000000000000000 ) ) ;
#355 = ORIENTED_EDGE ( 'NONE', *, *, #378, .T. ) ;
#356 = ORIENTED_EDGE ( 'NONE', *, *, #728, .T. ) ;
#357 = APPLICATION_CONTEXT ( 'automotive_design' ) ;
#358 = DIRECTION ( 'NONE',  ( -1.000000000000000000, 4.336808689942017120E-17, 0.0000000000000000000 ) ) ;
#359 = CARTESIAN_POINT ( 'NONE',  ( 0.0000000000000000000, 0.0000000000000000000, -42.39999999999999858 ) ) ;
#360 = EDGE_LOOP ( 'NONE', ( #169, #289, #535, #679, #388 ) ) ;
#361 = CARTESIAN_POINT ( 'NONE',  ( 80.00000000000000000, 19.99999999999999645, -42.39999999999999858 ) ) ;
#362 = LINE ( 'NONE', #95, #547 ) ;
#363 = EDGE_LOOP ( 'NONE', ( #556, #536, #78, #565 ) ) ;
#364 = ADVANCED_FACE ( 'NONE', ( #402 ), #62, .F. ) ;
#365 = EDGE_CURVE ( 'NONE', #640, #125, #157, .T. ) ;
#366 = DIRECTION ( 'NONE',  ( 0.9848077530122092416, 0.1736481776669235588, 0.0000000000000000000 ) ) ;
#367 = EDGE_CURVE ( 'NONE', #297, #575, #642, .T. ) ;
#368 = ADVANCED_FACE ( 'NONE', ( #676 ), #698, .F. ) ;
#369 = CIRCLE ( 'NONE', #681, 6.349999999999999645 ) ;
#370 = CYLINDRICAL_SURFACE ( 'NONE', #471, 2.649999999999999467 ) ;
#371 = ORIENTED_EDGE ( 'NONE', *, *, #367, .T. ) ;
#372 = EDGE_LOOP ( 'NONE', ( #633, #587, #273, #5, #173, #531 ) ) ;
#373 = ADVANCED_FACE ( 'NONE', ( #603 ), #61, .F. ) ;
#374 = PRODUCT_RELATED_PRODUCT_CATEGORY ( 'part', '', ( #731 ) ) ;
#375 = VECTOR ( 'NONE', #411, 1000.000000000000000 ) ;
#376 = AXIS2_PLACEMENT_3D ( 'NONE', #147, #79, #541 ) ;
#377 = FACE_OUTER_BOUND ( 'NONE', #242, .T. ) ;
#378 = EDGE_CURVE ( 'NONE', #583, #116, #164, .T. ) ;
#379 = ORIENTED_EDGE ( 'NONE', *, *, #6, .F. ) ;
#380 = DIRECTION ( 'NONE',  ( -0.0000000000000000000, -0.0000000000000000000, -1.000000000000000000 ) ) ;
#381 = CARTESIAN_POINT ( 'NONE',  ( -3.375000000000000000, 0.0000000000000000000, 9.000000000000000000 ) ) ;
#382 = DIRECTION ( 'NONE',  ( 0.0000000000000000000, 0.0000000000000000000, -1.000000000000000000 ) ) ;
#383 = DIRECTION ( 'NONE',  ( -1.000000000000000000, 0.0000000000000000000, 0.0000000000000000000 ) ) ;
#384 = CARTESIAN_POINT ( 'NONE',  ( 0.0000000000000000000, 0.0000000000000000000, -42.39999999999999858 ) ) ;
#385 = CARTESIAN_POINT ( 'NONE',  ( 0.0000000000000000000, 0.0000000000000000000, 9.000000000000000000 ) ) ;
#386 = CYLINDRICAL_SURFACE ( 'NONE', #321, 3.375000000000000000 ) ;
#387 = AXIS2_PLACEMENT_3D ( 'NONE', #511, #345, #39 ) ;
#388 = ORIENTED_EDGE ( 'NONE', *, *, #25, .F. ) ;
#389 = ORIENTED_EDGE ( 'NONE', *, *, #532, .F. ) ;
#390 = EDGE_CURVE ( 'NONE', #583, #332, #246, .T. ) ;
#391 = CARTESIAN_POINT ( 'NONE',  ( -4.049027706217661837, -4.891612682365775733, 3.000000000000000000 ) ) ;
#392 = ORIENTED_EDGE ( 'NONE', *, *, #496, .T. ) ;
#393 = ORIENTED_EDGE ( 'NONE', *, *, #528, .F. ) ;
#394 = CARTESIAN_POINT ( 'NONE',  ( 0.0000000000000000000, 0.0000000000000000000, 0.0000000000000000000 ) ) ;
#395 = ORIENTED_EDGE ( 'NONE', *, *, #6, .T. ) ;
#396 = DIRECTION ( 'NONE',  ( 0.9848077530122093526, -0.1736481776669235588, 0.0000000000000000000 ) ) ;
#397 = AXIS2_PLACEMENT_3D ( 'NONE', #337, #343, #730 ) ;
#398 = ORIENTED_EDGE ( 'NONE', *, *, #472, .T. ) ;
#399 = DIRECTION ( 'NONE',  ( -0.0000000000000000000, -0.0000000000000000000, -1.000000000000000000 ) ) ;
#400 = EDGE_CURVE ( 'NONE', #715, #332, #134, .T. ) ;
#401 = LINE ( 'NONE', #554, #602 ) ;
#402 = FACE_OUTER_BOUND ( 'NONE', #316, .T. ) ;
#403 = LINE ( 'NONE', #109, #167 ) ;
#404 = ORIENTED_EDGE ( 'NONE', *, *, #206, .F. ) ;
#405 = DIRECTION ( 'NONE',  ( -4.336808689942017120E-17, -1.000000000000000000, 0.0000000000000000000 ) ) ;
#406 = VERTEX_POINT ( 'NONE', #123 ) ;
#407 = CARTESIAN_POINT ( 'NONE',  ( 0.0000000000000000000, 0.0000000000000000000, 0.0000000000000000000 ) ) ;
#408 = ORIENTED_EDGE ( 'NONE', *, *, #422, .T. ) ;
#409 = FACE_OUTER_BOUND ( 'NONE', #363, .T. ) ;
#410 = CYLINDRICAL_SURFACE ( 'NONE', #512, 2.649999999999999467 ) ;
#411 = DIRECTION ( 'NONE',  ( -0.0000000000000000000, -0.0000000000000000000, -1.000000000000000000 ) ) ;
#412 = ORIENTED_EDGE ( 'NONE', *, *, #582, .F. ) ;
#413 = ORIENTED_EDGE ( 'NONE', *, *, #139, .F. ) ;
#414 = EDGE_CURVE ( 'NONE', #474, #487, #194, .T. ) ;
#415 = EDGE_CURVE ( 'NONE', #691, #21, #186, .T. ) ;
#416 = EDGE_LOOP ( 'NONE', ( #480, #265, #648, #398 ) ) ;
#417 = DIRECTION ( 'NONE',  ( -0.0000000000000000000, -0.0000000000000000000, -1.000000000000000000 ) ) ;
#418 = ADVANCED_FACE ( 'NONE', ( #312 ), #714, .F. ) ;
#419 = CIRCLE ( 'NONE', #397, 3.375000000000000000 ) ;
#420 = ORIENTED_EDGE ( 'NONE', *, *, #431, .T. ) ;
#421 = AXIS2_PLACEMENT_3D ( 'NONE', #166, #723, #45 ) ;
#422 = EDGE_CURVE ( 'NONE', #575, #280, #573, .T. ) ;
#423 = CIRCLE ( 'NONE', #517, 2.649999999999999467 ) ;
#424 = VECTOR ( 'NONE', #708, 1000.000000000000114 ) ;
#425 = ORIENTED_EDGE ( 'NONE', *, *, #576, .F. ) ;
#426 = VERTEX_POINT ( 'NONE', #381 ) ;
#427 = CARTESIAN_POINT ( 'NONE',  ( -16.99016767081734613, 2.609740545482353458, 0.0000000000000000000 ) ) ;
#428 = CARTESIAN_POINT ( 'NONE',  ( 16.53000000000000114, 0.0000000000000000000, 3.000000000000000000 ) ) ;
#429 = AXIS2_PLACEMENT_3D ( 'NONE', #655, #545, #275 ) ;
#430 = FACE_OUTER_BOUND ( 'NONE', #360, .T. ) ;
#431 = EDGE_CURVE ( 'NONE', #305, #141, #262, .T. ) ;
#432 = ORIENTED_EDGE ( 'NONE', *, *, #711, .T. ) ;
#433 = CARTESIAN_POINT ( 'NONE',  ( 4.049027706217668943, 4.891612682365773956, 0.0000000000000000000 ) ) ;
#434 = DIRECTION ( 'NONE',  ( -0.0000000000000000000, -0.0000000000000000000, 1.000000000000000000 ) ) ;
#435 =( GEOMETRIC_REPRESENTATION_CONTEXT ( 3 ) GLOBAL_UNCERTAINTY_ASSIGNED_CONTEXT ( ( #10 ) ) GLOBAL_UNIT_ASSIGNED_CONTEXT ( ( #682, #729, #235 ) ) REPRESENTATION_CONTEXT ( 'NONE', 'WORKASPACE' ) );
#436 = DIRECTION ( 'NONE',  ( -1.000000000000000000, 0.0000000000000000000, 0.0000000000000000000 ) ) ;
#437 = DIRECTION ( 'NONE',  ( -0.0000000000000000000, -0.0000000000000000000, -1.000000000000000000 ) ) ;
#438 = PLANE ( 'NONE',  #702 ) ;
#439 = ORIENTED_EDGE ( 'NONE', *, *, #623, .T. ) ;
#440 = CARTESIAN_POINT ( 'NONE',  ( 16.99016767081734613, 2.609740545482353458, 3.000000000000000000 ) ) ;
#441 = DIRECTION ( 'NONE',  ( -1.000000000000000000, 0.0000000000000000000, 0.0000000000000000000 ) ) ;
#442 = DIRECTION ( 'NONE',  ( -0.0000000000000000000, -0.0000000000000000000, -1.000000000000000000 ) ) ;
#443 = ORIENTED_EDGE ( 'NONE', *, *, #390, .T. ) ;
#444 = ORIENTED_EDGE ( 'NONE', *, *, #367, .F. ) ;
#445 = DIRECTION ( 'NONE',  ( -0.0000000000000000000, -0.0000000000000000000, -1.000000000000000000 ) ) ;
#446 = AXIS2_PLACEMENT_3D ( 'NONE', #36, #88, #277 ) ;
#447 = CARTESIAN_POINT ( 'NONE',  ( -16.53000000000000114, 0.0000000000000000000, 0.0000000000000000000 ) ) ;
#448 = CARTESIAN_POINT ( 'NONE',  ( -20.00000000000000355, -80.00000000000001421, 9.000000000000000000 ) ) ;
#449 = EDGE_LOOP ( 'NONE', ( #527, #700, #404, #432 ) ) ;
#450 = EDGE_CURVE ( 'NONE', #280, #653, #477, .T. ) ;
#451 = DIRECTION ( 'NONE',  ( 0.0000000000000000000, 0.0000000000000000000, -1.000000000000000000 ) ) ;
#452 = DIRECTION ( 'NONE',  ( -0.0000000000000000000, -0.0000000000000000000, -1.000000000000000000 ) ) ;
#453 = ORIENTED_EDGE ( 'NONE', *, *, #400, .F. ) ;
#454 = ORIENTED_EDGE ( 'NONE', *, *, #695, .T. ) ;
#455 = CARTESIAN_POINT ( 'NONE',  ( 0.0000000000000000000, 0.0000000000000000000, 9.000000000000000000 ) ) ;
#456 = DIRECTION ( 'NONE',  ( -0.0000000000000000000, -0.0000000000000000000, -1.000000000000000000 ) ) ;
#457 = EDGE_CURVE ( 'NONE', #614, #600, #484, .T. ) ;
#458 = VECTOR ( 'NONE', #162, 1000.000000000000000 ) ;
#459 = DIRECTION ( 'NONE',  ( 1.000000000000000000, 0.0000000000000000000, 0.0000000000000000000 ) ) ;
#460 = DIRECTION ( 'NONE',  ( -0.0000000000000000000, -0.0000000000000000000, -1.000000000000000000 ) ) ;
#461 = VECTOR ( 'NONE', #271, 1000.000000000000114 ) ;
#462 = AXIS2_PLACEMENT_3D ( 'NONE', #90, #501, #333 ) ;
#463 = FACE_OUTER_BOUND ( 'NONE', #122, .T. ) ;
#464 = ORIENTED_EDGE ( 'NONE', *, *, #610, .T. ) ;
#465 = ORIENTED_EDGE ( 'NONE', *, *, #639, .T. ) ;
#466 = CARTESIAN_POINT ( 'NONE',  ( 0.0000000000000000000, 0.0000000000000000000, 3.000000000000000000 ) ) ;
#467 = ORIENTED_EDGE ( 'NONE', *, *, #591, .F. ) ;
#468 = DIRECTION ( 'NONE',  ( 1.000000000000000000, -1.015222764943957574E-16, -0.0000000000000000000 ) ) ;
#469 = FACE_OUTER_BOUND ( 'NONE', #104, .T. ) ;
#470 = EDGE_LOOP ( 'NONE', ( #52, #256, #725, #379 ) ) ;
#471 = AXIS2_PLACEMENT_3D ( 'NONE', #428, #47, #101 ) ;
#472 = EDGE_CURVE ( 'NONE', #614, #558, #13, .T. ) ;
#473 = AXIS2_PLACEMENT_3D ( 'NONE', #407, #54, #459 ) ;
#474 = VERTEX_POINT ( 'NONE', #269 ) ;
#475 = ADVANCED_FACE ( 'NONE', ( #409 ), #654, .F. ) ;
#476 = VECTOR ( 'NONE', #510, 1000.000000000000000 ) ;
#477 = LINE ( 'NONE', #427, #461 ) ;
#478 = VECTOR ( 'NONE', #31, 1000.000000000000114 ) ;
#479 = ORIENTED_EDGE ( 'NONE', *, *, #561, .T. ) ;
#480 = ORIENTED_EDGE ( 'NONE', *, *, #150, .T. ) ;
#481 = ADVANCED_FACE ( 'NONE', ( #339, #629 ), #319, .F. ) ;
#482 = DIRECTION ( 'NONE',  ( -1.000000000000000000, 0.0000000000000000000, 0.0000000000000000000 ) ) ;
#483 = AXIS2_PLACEMENT_3D ( 'NONE', #727, #37, #516 ) ;
#484 = LINE ( 'NONE', #491, #424 ) ;
#485 = EDGE_CURVE ( 'NONE', #322, #426, #19, .T. ) ;
#486 = VERTEX_POINT ( 'NONE', #22 ) ;
#487 = VERTEX_POINT ( 'NONE', #599 ) ;
#488 = DIRECTION ( 'NONE',  ( -0.0000000000000000000, -0.0000000000000000000, -1.000000000000000000 ) ) ;
#489 = PLANE ( 'NONE',  #376 ) ;
#490 = CARTESIAN_POINT ( 'NONE',  ( 16.99016767081733192, -2.609740545482356122, -0.0000000000000000000 ) ) ;
#491 = CARTESIAN_POINT ( 'NONE',  ( 16.99016767081734613, 2.609740545482353458, 3.000000000000000000 ) ) ;
#492 = CARTESIAN_POINT ( 'NONE',  ( 80.00000000000000000, 19.99999999999999645, 9.000000000000000000 ) ) ;
#493 = AXIS2_PLACEMENT_3D ( 'NONE', #550, #382, #651 ) ;
#494 = LINE ( 'NONE', #658, #50 ) ;
#495 = FACE_BOUND ( 'NONE', #69, .T. ) ;
#496 = EDGE_CURVE ( 'NONE', #600, #665, #119, .T. ) ;
#497 = ORIENTED_EDGE ( 'NONE', *, *, #649, .F. ) ;
#498 = FILL_AREA_STYLE_COLOUR ( '', #555 ) ;
#499 = DIRECTION ( 'NONE',  ( 0.0000000000000000000, 0.0000000000000000000, -1.000000000000000000 ) ) ;
#500 = ORIENTED_EDGE ( 'NONE', *, *, #238, .F. ) ;
#501 = DIRECTION ( 'NONE',  ( 0.0000000000000000000, 0.0000000000000000000, 1.000000000000000000 ) ) ;
#502 = DIRECTION ( 'NONE',  ( -1.000000000000000000, 0.0000000000000000000, -0.0000000000000000000 ) ) ;
#503 = ORIENTED_EDGE ( 'NONE', *, *, #400, .T. ) ;
#504 = DIRECTION ( 'NONE',  ( 0.0000000000000000000, 1.000000000000000000, 0.0000000000000000000 ) ) ;
#505 = SHAPE_DEFINITION_REPRESENTATION ( #699, #611 ) ;
#506 = PLANE ( 'NONE',  #387 ) ;
#507 = VECTOR ( 'NONE', #113, 1000.000000000000000 ) ;
#508 = VECTOR ( 'NONE', #442, 1000.000000000000000 ) ;
#509 = ORIENTED_EDGE ( 'NONE', *, *, #304, .F. ) ;
#510 = DIRECTION ( 'NONE',  ( 1.387778780781445676E-16, -1.000000000000000000, -0.0000000000000000000 ) ) ;
#511 = CARTESIAN_POINT ( 'NONE',  ( 0.0000000000000000000, 0.0000000000000000000, 9.000000000000000000 ) ) ;
#512 = AXIS2_PLACEMENT_3D ( 'NONE', #632, #522, #245 ) ;
#513 = CARTESIAN_POINT ( 'NONE',  ( 80.00000000000001421, -80.00000000000000000, 9.000000000000000000 ) ) ;
#514 = EDGE_CURVE ( 'NONE', #577, #213, #593, .T. ) ;
#515 = SURFACE_STYLE_USAGE ( .BOTH. , #170 ) ;
#516 = DIRECTION ( 'NONE',  ( 1.000000000000000000, 0.0000000000000000000, 0.0000000000000000000 ) ) ;
#517 = AXIS2_PLACEMENT_3D ( 'NONE', #627, #624, #244 ) ;
#518 = VECTOR ( 'NONE', #692, 1000.000000000000000 ) ;
#519 = DIRECTION ( 'NONE',  ( -0.0000000000000000000, -0.0000000000000000000, 1.000000000000000000 ) ) ;
#520 = ORIENTED_EDGE ( 'NONE', *, *, #111, .F. ) ;
#521 = ORIENTED_EDGE ( 'NONE', *, *, #253, .T. ) ;
#522 = DIRECTION ( 'NONE',  ( -0.0000000000000000000, -0.0000000000000000000, -1.000000000000000000 ) ) ;
#523 = DIRECTION ( 'NONE',  ( 0.0000000000000000000, 0.0000000000000000000, -1.000000000000000000 ) ) ;
#524 = ORIENTED_EDGE ( 'NONE', *, *, #378, .F. ) ;
#525 = VECTOR ( 'NONE', #222, 1000.000000000000000 ) ;
#526 = CARTESIAN_POINT ( 'NONE',  ( 45.82575694955840362, 20.00000000000000000, -42.39999999999999858 ) ) ;
#527 = ORIENTED_EDGE ( 'NONE', *, *, #514, .T. ) ;
#528 = EDGE_CURVE ( 'NONE', #180, #406, #494, .T. ) ;
#529 = LINE ( 'NONE', #552, #594 ) ;
#530 = AXIS2_PLACEMENT_3D ( 'NONE', #690, #519, #8 ) ;
#531 = ORIENTED_EDGE ( 'NONE', *, *, #415, .T. ) ;
#532 = EDGE_CURVE ( 'NONE', #646, #688, #616, .T. ) ;
#533 = ADVANCED_FACE ( 'NONE', ( #318 ), #438, .F. ) ;
#534 = CARTESIAN_POINT ( 'NONE',  ( -3.375000000000000000, 0.0000000000000000000, 9.000000000000000000 ) ) ;
#535 = ORIENTED_EDGE ( 'NONE', *, *, #323, .F. ) ;
#536 = ORIENTED_EDGE ( 'NONE', *, *, #639, .F. ) ;
#537 = CARTESIAN_POINT ( 'NONE',  ( 4.049027706217661837, -4.891612682365775733, 3.000000000000000000 ) ) ;
#538 = ADVANCED_FACE ( 'NONE', ( #686 ), #489, .T. ) ;
#539 = CARTESIAN_POINT ( 'NONE',  ( -20.00000000000000355, -80.00000000000001421, 9.000000000000000000 ) ) ;
#540 = ORIENTED_EDGE ( 'NONE', *, *, #687, .T. ) ;
#541 = DIRECTION ( 'NONE',  ( -1.387778780781445676E-16, 1.000000000000000000, 0.0000000000000000000 ) ) ;
#542 = CARTESIAN_POINT ( 'NONE',  ( 80.00000000000000000, 19.99999999999999645, 9.000000000000000000 ) ) ;
#543 = AXIS2_PLACEMENT_3D ( 'NONE', #303, #247, #241 ) ;
#544 = CIRCLE ( 'NONE', #266, 3.375000000000000000 ) ;
#545 = DIRECTION ( 'NONE',  ( 0.0000000000000000000, 0.0000000000000000000, 1.000000000000000000 ) ) ;
#546 = DIRECTION ( 'NONE',  ( 1.000000000000000000, 1.387778780781445429E-16, 0.0000000000000000000 ) ) ;
#547 = VECTOR ( 'NONE', #399, 1000.000000000000000 ) ;
#548 = VERTEX_POINT ( 'NONE', #537 ) ;
#549 = AXIS2_PLACEMENT_3D ( 'NONE', #719, #221, #396 ) ;
#550 = CARTESIAN_POINT ( 'NONE',  ( 0.0000000000000000000, 0.0000000000000000000, 9.000000000000000000 ) ) ;
#551 = FILL_AREA_STYLE ('',( #498 ) ) ;
#552 = CARTESIAN_POINT ( 'NONE',  ( 50.00000000000000711, 0.0000000000000000000, -42.39999999999999858 ) ) ;
#553 = ORIENTED_EDGE ( 'NONE', *, *, #576, .T. ) ;
#554 = CARTESIAN_POINT ( 'NONE',  ( -16.99016767081734613, 2.609740545482353458, 3.000000000000000000 ) ) ;
#555 = COLOUR_RGB ( '',0.9882352941176471006, 0.7372549019607843590, 0.5176470588235293491 ) ;
#556 = ORIENTED_EDGE ( 'NONE', *, *, #450, .T. ) ;
#557 = DIRECTION ( 'NONE',  ( -1.000000000000000000, 0.0000000000000000000, 0.0000000000000000000 ) ) ;
#558 = VERTEX_POINT ( 'NONE', #433 ) ;
#559 = STYLED_ITEM ( 'NONE', ( #11 ), #586 ) ;
#560 = DIRECTION ( 'NONE',  ( -1.000000000000000000, 0.0000000000000000000, 0.0000000000000000000 ) ) ;
#561 = EDGE_CURVE ( 'NONE', #308, #332, #351, .T. ) ;
#562 = CARTESIAN_POINT ( 'NONE',  ( -16.99016767081733192, -2.609740545482356122, 3.000000000000000000 ) ) ;
#563 = CARTESIAN_POINT ( 'NONE',  ( -16.53000000000000114, 0.0000000000000000000, 3.000000000000000000 ) ) ;
#564 = CARTESIAN_POINT ( 'NONE',  ( 16.99016767081733192, -2.609740545482356122, 0.0000000000000000000 ) ) ;
#565 = ORIENTED_EDGE ( 'NONE', *, *, #591, .T. ) ;
#566 = ORIENTED_EDGE ( 'NONE', *, *, #185, .T. ) ;
#567 = CARTESIAN_POINT ( 'NONE',  ( 0.0000000000000000000, 0.0000000000000000000, 0.0000000000000000000 ) ) ;
#568 = AXIS2_PLACEMENT_3D ( 'NONE', #209, #81, #85 ) ;
#569 = APPLICATION_PROTOCOL_DEFINITION ( 'draft international standard', 'automotive_design', 1998, #684 ) ;
#570 = CARTESIAN_POINT ( 'NONE',  ( 0.0000000000000000000, 0.0000000000000000000, 9.000000000000000000 ) ) ;
#571 = DIRECTION ( 'NONE',  ( -1.000000000000000000, 0.0000000000000000000, 0.0000000000000000000 ) ) ;
#572 = SURFACE_STYLE_FILL_AREA ( #46 ) ;
#573 = CIRCLE ( 'NONE', #637, 2.649999999999999467 ) ;
#574 = DIRECTION ( 'NONE',  ( -1.000000000000000000, -1.387778780781445429E-16, 0.0000000000000000000 ) ) ;
#575 = VERTEX_POINT ( 'NONE', #673 ) ;
#576 = EDGE_CURVE ( 'NONE', #653, #558, #369, .T. ) ;
#577 = VERTEX_POINT ( 'NONE', #592 ) ;
#578 = CARTESIAN_POINT ( 'NONE',  ( -16.99016767081734613, 2.609740545482353458, 3.000000000000000000 ) ) ;
#579 = ORIENTED_EDGE ( 'NONE', *, *, #253, .F. ) ;
#580 = LINE ( 'NONE', #562, #458 ) ;
#581 = VECTOR ( 'NONE', #172, 1000.000000000000000 ) ;
#582 = EDGE_CURVE ( 'NONE', #487, #614, #1, .T. ) ;
#583 = VERTEX_POINT ( 'NONE', #615 ) ;
#584 = ADVANCED_FACE ( 'NONE', ( #254 ), #667, .F. ) ;
#585 = CIRCLE ( 'NONE', #462, 20.00000000000000355 ) ;
#586 = MANIFOLD_SOLID_BREP ( 'Saliente-Extruir2', #179 ) ;
#587 = ORIENTED_EDGE ( 'NONE', *, *, #168, .F. ) ;
#588 = ADVANCED_FACE ( 'NONE', ( #192 ), #94, .F. ) ;
#589 = ORIENTED_EDGE ( 'NONE', *, *, #347, .F. ) ;
#590 = PRESENTATION_LAYER_ASSIGNMENT (  '', '', ( #559 ) ) ;
#591 = EDGE_CURVE ( 'NONE', #474, #280, #401, .T. ) ;
#592 = CARTESIAN_POINT ( 'NONE',  ( -20.00000000000000355, -80.00000000000001421, 9.000000000000000000 ) ) ;
#593 = LINE ( 'NONE', #539, #650 ) ;
#594 = VECTOR ( 'NONE', #434, 1000.000000000000000 ) ;
#595 = ORIENTED_EDGE ( 'NONE', *, *, #191, .F. ) ;
#596 = DIRECTION ( 'NONE',  ( -0.9848077530122093526, 0.1736481776669235866, -0.0000000000000000000 ) ) ;
#597 = DIRECTION ( 'NONE',  ( -0.0000000000000000000, -0.0000000000000000000, -1.000000000000000000 ) ) ;
#598 = CARTESIAN_POINT ( 'NONE',  ( -16.99016767081733192, -2.609740545482356122, 0.0000000000000000000 ) ) ;
#599 = CARTESIAN_POINT ( 'NONE',  ( -4.049027706217668943, 4.891612682365773956, 3.000000000000000000 ) ) ;
#600 = VERTEX_POINT ( 'NONE', #604 ) ;
#601 = CARTESIAN_POINT ( 'NONE',  ( -4.049027706217661837, -4.891612682365775733, 3.000000000000000000 ) ) ;
#602 = VECTOR ( 'NONE', #154, 1000.000000000000000 ) ;
#603 = FACE_OUTER_BOUND ( 'NONE', #346, .T. ) ;
#604 = CARTESIAN_POINT ( 'NONE',  ( 16.99016767081734613, 2.609740545482353458, 3.000000000000000000 ) ) ;
#605 = CARTESIAN_POINT ( 'NONE',  ( -16.53000000000000114, 0.0000000000000000000, 3.000000000000000000 ) ) ;
#606 = LINE ( 'NONE', #260, #705 ) ;
#607 = ORIENTED_EDGE ( 'NONE', *, *, #496, .F. ) ;
#608 = ORIENTED_EDGE ( 'NONE', *, *, #350, .T. ) ;
#609 = PLANE ( 'NONE',  #66 ) ;
#610 = EDGE_CURVE ( 'NONE', #116, #16, #223, .T. ) ;
#611 = ADVANCED_BREP_SHAPE_REPRESENTATION ( 'eslabon1', ( #586, #473 ), #435 ) ;
#612 = CARTESIAN_POINT ( 'NONE',  ( 16.99016767081733192, -2.609740545482356122, 3.000000000000000000 ) ) ;
#613 = CARTESIAN_POINT ( 'NONE',  ( 16.99016767081734613, 2.609740545482353458, 0.0000000000000000000 ) ) ;
#614 = VERTEX_POINT ( 'NONE', #43 ) ;
#615 = CARTESIAN_POINT ( 'NONE',  ( 45.82575694955840362, 20.00000000000000000, -42.39999999999999858 ) ) ;
#616 = CIRCLE ( 'NONE', #124, 50.00000000000000711 ) ;
#617 = FACE_OUTER_BOUND ( 'NONE', #449, .T. ) ;
#618 = CARTESIAN_POINT ( 'NONE',  ( 16.99016767081733192, -2.609740545482356122, 3.000000000000000000 ) ) ;
#619 = CARTESIAN_POINT ( 'NONE',  ( 4.049027706217661837, -4.891612682365775733, 3.000000000000000000 ) ) ;
#620 = ORIENTED_EDGE ( 'NONE', *, *, #168, .T. ) ;
#621 = AXIS2_PLACEMENT_3D ( 'NONE', #567, #236, #674 ) ;
#622 = DIRECTION ( 'NONE',  ( -1.000000000000000000, 0.0000000000000000000, 0.0000000000000000000 ) ) ;
#623 = EDGE_CURVE ( 'NONE', #141, #575, #156, .T. ) ;
#624 = DIRECTION ( 'NONE',  ( 0.0000000000000000000, 0.0000000000000000000, -1.000000000000000000 ) ) ;
#625 = CARTESIAN_POINT ( 'NONE',  ( 0.0000000000000000000, 0.0000000000000000000, 3.000000000000000000 ) ) ;
#626 = CIRCLE ( 'NONE', #195, 20.00000000000000355 ) ;
#627 = CARTESIAN_POINT ( 'NONE',  ( -16.53000000000000114, 0.0000000000000000000, 3.000000000000000000 ) ) ;
#628 = CARTESIAN_POINT ( 'NONE',  ( -19.17999999999999972, 0.0000000000000000000, 3.000000000000000000 ) ) ;
#629 = FACE_OUTER_BOUND ( 'NONE', #229, .T. ) ;
#630 = LINE ( 'NONE', #159, #248 ) ;
#631 = ORIENTED_EDGE ( 'NONE', *, *, #695, .F. ) ;
#632 = CARTESIAN_POINT ( 'NONE',  ( -16.53000000000000114, 0.0000000000000000000, 3.000000000000000000 ) ) ;
#633 = ORIENTED_EDGE ( 'NONE', *, *, #225, .F. ) ;
#634 = ORIENTED_EDGE ( 'NONE', *, *, #205, .T. ) ;
#635 = DIRECTION ( 'NONE',  ( -1.000000000000000000, 0.0000000000000000000, 0.0000000000000000000 ) ) ;
#636 = VECTOR ( 'NONE', #596, 999.9999999999998863 ) ;
#637 = AXIS2_PLACEMENT_3D ( 'NONE', #251, #126, #482 ) ;
#638 = VECTOR ( 'NONE', #349, 1000.000000000000000 ) ;
#639 = EDGE_CURVE ( 'NONE', #487, #653, #133, .T. ) ;
#640 = VERTEX_POINT ( 'NONE', #165 ) ;
#641 = CARTESIAN_POINT ( 'NONE',  ( -20.00000000000000355, 2.449293598294706907E-15, 9.000000000000000000 ) ) ;
#642 = LINE ( 'NONE', #628, #375 ) ;
#643 = EDGE_LOOP ( 'NONE', ( #198, #413, #500, #270 ) ) ;
#644 = UNCERTAINTY_MEASURE_WITH_UNIT (LENGTH_MEASURE( 1.000000000000000082E-05 ), #335, 'distance_accuracy_value', 'NONE');
#645 = VERTEX_POINT ( 'NONE', #100 ) ;
#646 = VERTEX_POINT ( 'NONE', #278 ) ;
#647 = EDGE_CURVE ( 'NONE', #308, #21, #585, .T. ) ;
#648 = ORIENTED_EDGE ( 'NONE', *, *, #457, .F. ) ;
#649 = EDGE_CURVE ( 'NONE', #406, #141, #580, .T. ) ;
#650 = VECTOR ( 'NONE', #488, 1000.000000000000000 ) ;
#651 = DIRECTION ( 'NONE',  ( -1.000000000000000000, 0.0000000000000000000, 0.0000000000000000000 ) ) ;
#652 = CIRCLE ( 'NONE', #93, 6.349999999999996980 ) ;
#653 = VERTEX_POINT ( 'NONE', #342 ) ;
#654 = PLANE ( 'NONE',  #149 ) ;
#655 = CARTESIAN_POINT ( 'NONE',  ( 0.0000000000000000000, 0.0000000000000000000, 0.0000000000000000000 ) ) ;
#656 = DIRECTION ( 'NONE',  ( 8.673617379884035472E-17, 1.000000000000000000, -0.0000000000000000000 ) ) ;
#657 = EDGE_CURVE ( 'NONE', #665, #548, #105, .T. ) ;
#658 = CARTESIAN_POINT ( 'NONE',  ( -16.99016767081733192, -2.609740545482356122, 3.000000000000000000 ) ) ;
#659 = DIRECTION ( 'NONE',  ( -1.000000000000000000, 8.673617379884035472E-17, 0.0000000000000000000 ) ) ;
#660 = LINE ( 'NONE', #720, #638 ) ;
#661 = ORIENTED_EDGE ( 'NONE', *, *, #649, .T. ) ;
#662 = CARTESIAN_POINT ( 'NONE',  ( 0.0000000000000000000, 0.0000000000000000000, -42.39999999999999858 ) ) ;
#663 = EDGE_LOOP ( 'NONE', ( #444, #680, #661, #439 ) ) ;
#664 = PLANE ( 'NONE',  #726 ) ;
#665 = VERTEX_POINT ( 'NONE', #612 ) ;
#666 = DIRECTION ( 'NONE',  ( -1.000000000000000000, 0.0000000000000000000, 0.0000000000000000000 ) ) ;
#667 = CYLINDRICAL_SURFACE ( 'NONE', #446, 3.375000000000000000 ) ;
#668 = SURFACE_STYLE_USAGE ( .BOTH. , #102 ) ;
#669 = CARTESIAN_POINT ( 'NONE',  ( -20.00000000000000355, -80.00000000000001421, -42.39999999999999858 ) ) ;
#670 = LINE ( 'NONE', #513, #320 ) ;
#671 = ORIENTED_EDGE ( 'NONE', *, *, #485, .T. ) ;
#672 = AXIS2_PLACEMENT_3D ( 'NONE', #466, #417, #65 ) ;
#673 = CARTESIAN_POINT ( 'NONE',  ( -19.17999999999999972, 0.0000000000000000000, 0.0000000000000000000 ) ) ;
#674 = DIRECTION ( 'NONE',  ( -1.000000000000000000, 0.0000000000000000000, 0.0000000000000000000 ) ) ;
#675 = EDGE_CURVE ( 'NONE', #640, #691, #626, .T. ) ;
#676 = FACE_OUTER_BOUND ( 'NONE', #643, .T. ) ;
#677 = CIRCLE ( 'NONE', #107, 50.00000000000000711 ) ;
#678 =( LENGTH_UNIT ( ) NAMED_UNIT ( * ) SI_UNIT ( .MILLI., .METRE. ) );
#679 = ORIENTED_EDGE ( 'NONE', *, *, #711, .F. ) ;
#680 = ORIENTED_EDGE ( 'NONE', *, *, #728, .F. ) ;
#681 = AXIS2_PLACEMENT_3D ( 'NONE', #394, #230, #441 ) ;
#682 =( LENGTH_UNIT ( ) NAMED_UNIT ( * ) SI_UNIT ( .MILLI., .METRE. ) );
#683 = CARTESIAN_POINT ( 'NONE',  ( 45.82575694955840362, 20.00000000000000000, 0.0000000000000000000 ) ) ;
#684 = APPLICATION_CONTEXT ( 'automotive_design' ) ;
#685 = CARTESIAN_POINT ( 'NONE',  ( 0.0000000000000000000, 0.0000000000000000000, 0.0000000000000000000 ) ) ;
#686 = FACE_OUTER_BOUND ( 'NONE', #249, .T. ) ;
#687 = EDGE_CURVE ( 'NONE', #297, #474, #423, .T. ) ;
#688 = VERTEX_POINT ( 'NONE', #108 ) ;
#689 = ORIENTED_EDGE ( 'NONE', *, *, #687, .F. ) ;
#690 = CARTESIAN_POINT ( 'NONE',  ( 0.0000000000000000000, 0.0000000000000000000, 0.0000000000000000000 ) ) ;
#691 = VERTEX_POINT ( 'NONE', #232 ) ;
#692 = DIRECTION ( 'NONE',  ( -0.0000000000000000000, -0.0000000000000000000, -1.000000000000000000 ) ) ;
#693 = AXIS2_PLACEMENT_3D ( 'NONE', #605, #23, #666 ) ;
#694 = VECTOR ( 'NONE', #504, 1000.000000000000000 ) ;
#695 = EDGE_CURVE ( 'NONE', #293, #177, #117, .T. ) ;
#696 = VERTEX_POINT ( 'NONE', #171 ) ;
#697 = ADVANCED_FACE ( 'NONE', ( #92 ), #310, .T. ) ;
#698 = CYLINDRICAL_SURFACE ( 'NONE', #138, 6.349999999999996980 ) ;
#699 = PRODUCT_DEFINITION_SHAPE ( 'NONE', 'NONE',  #114 ) ;
#700 = ORIENTED_EDGE ( 'NONE', *, *, #338, .F. ) ;
#701 = ORIENTED_EDGE ( 'NONE', *, *, #67, .T. ) ;
#702 = AXIS2_PLACEMENT_3D ( 'NONE', #328, #30, #140 ) ;
#703 = PRESENTATION_STYLE_ASSIGNMENT (( #515 ) ) ;
#704 = DIRECTION ( 'NONE',  ( 1.387778780781445676E-16, -1.000000000000000000, 0.0000000000000000000 ) ) ;
#705 = VECTOR ( 'NONE', #713, 1000.000000000000000 ) ;
#706 = ORIENTED_EDGE ( 'NONE', *, *, #582, .T. ) ;
#707 = CARTESIAN_POINT ( 'NONE',  ( -16.99016767081734613, 2.609740545482353458, 3.000000000000000000 ) ) ;
#708 = DIRECTION ( 'NONE',  ( 0.9848077530122092416, -0.1736481776669235588, -0.0000000000000000000 ) ) ;
#709 = CARTESIAN_POINT ( 'NONE',  ( -3.375000000000000000, 0.0000000000000000000, 3.000000000000000000 ) ) ;
#710 = ORIENTED_EDGE ( 'NONE', *, *, #450, .F. ) ;
#711 = EDGE_CURVE ( 'NONE', #645, #577, #261, .T. ) ;
#712 = CARTESIAN_POINT ( 'NONE',  ( -4.049027706217668943, 4.891612682365773956, 3.000000000000000000 ) ) ;
#713 = DIRECTION ( 'NONE',  ( -0.0000000000000000000, -0.0000000000000000000, -1.000000000000000000 ) ) ;
#714 = CYLINDRICAL_SURFACE ( 'NONE', #672, 6.349999999999999645 ) ;
#715 = VERTEX_POINT ( 'NONE', #344 ) ;
#716 = DIRECTION ( 'NONE',  ( 0.9848077530122092416, -0.1736481776669235588, -0.0000000000000000000 ) ) ;
#717 = ORIENTED_EDGE ( 'NONE', *, *, #623, .F. ) ;
#718 = CARTESIAN_POINT ( 'NONE',  ( -19.17999999999999972, 0.0000000000000000000, 3.000000000000000000 ) ) ;
#719 = CARTESIAN_POINT ( 'NONE',  ( -16.99016767081733192, -2.609740545482356122, 3.000000000000000000 ) ) ;
#720 = CARTESIAN_POINT ( 'NONE',  ( -19.99999999999998934, -45.82575694955841072, -42.39999999999999858 ) ) ;
#721 = VECTOR ( 'NONE', #283, 1000.000000000000000 ) ;
#722 = DIRECTION ( 'NONE',  ( 1.000000000000000000, -8.673617379884035472E-17, 0.0000000000000000000 ) ) ;
#723 = DIRECTION ( 'NONE',  ( 0.0000000000000000000, 0.0000000000000000000, -1.000000000000000000 ) ) ;
#724 = LINE ( 'NONE', #490, #478 ) ;
#725 = ORIENTED_EDGE ( 'NONE', *, *, #304, .T. ) ;
#726 = AXIS2_PLACEMENT_3D ( 'NONE', #155, #656, #659 ) ;
#727 = CARTESIAN_POINT ( 'NONE',  ( 0.0000000000000000000, 0.0000000000000000000, -42.39999999999999858 ) ) ;
#728 = EDGE_CURVE ( 'NONE', #406, #297, #176, .T. ) ;
#729 =( NAMED_UNIT ( * ) PLANE_ANGLE_UNIT ( ) SI_UNIT ( $, .RADIAN. ) );
#730 = DIRECTION ( 'NONE',  ( -1.000000000000000000, 0.0000000000000000000, 0.0000000000000000000 ) ) ;
#731 = PRODUCT ( 'eslabon1', 'eslabon1', '', ( #178 ) ) ;
ENDSEC;
END-ISO-10303-21;
